Aula_5_Comparação de Tratamentos com ANOVA, Modelos Mistos e Correlação
…
Anova

Complementando a aula anterior, nesta aula revisamos a ANOVA tradicional e aplicamos testes de médias. Como nova análise temos os modelos lineares mistos, utilizados quando há estruturas de dados mais complexas, como parcelas subdivididas e efeitos aleatórios. Introduzindo também correlação e regressão linear, que permitem avaliar relações entre variáveis contínuas.

Code

library(gsheet)
library(ggplot2)
library(readxl)
library(tidyverse)
library(Hmisc)

gsheet2tbl("https://docs.google.com/spreadsheets/d/1bq2N19DcZdtax2fQW9OHSGMR0X2__Z9T/edit?gid=866852711#gid=866852711")

# A tibble: 32 × 5
    TRAT BLOCO   DFC   FER  PROD
   <dbl> <dbl> <dbl> <dbl> <dbl>
 1     1     1  10    17    4611
 2     1     2  10.5  21    4312
 3     1     3  12    25    4545
 4     1     4  11    18    3409
 5     2     1   6.2   6.5  5023
 6     2     2   6     4    4839
 7     2     3   7     8    4903
 8     2     4   6.5   5    4975
 9     3     1   6     6    5235
10     3     2   6.2   3.5  5014
# ℹ 22 more rows

Code

campo <- gsheet2tbl("https://docs.google.com/spreadsheets/d/1bq2N19DcZdtax2fQW9OHSGMR0X2__Z9T/edit?gid=866852711#gid=866852711")

campo

# A tibble: 32 × 5
    TRAT BLOCO   DFC   FER  PROD
   <dbl> <dbl> <dbl> <dbl> <dbl>
 1     1     1  10    17    4611
 2     1     2  10.5  21    4312
 3     1     3  12    25    4545
 4     1     4  11    18    3409
 5     2     1   6.2   6.5  5023
 6     2     2   6     4    4839
 7     2     3   7     8    4903
 8     2     4   6.5   5    4975
 9     3     1   6     6    5235
10     3     2   6.2   3.5  5014
# ℹ 22 more rows
…
Code

library(agricolae)
cv.model(f_campo)

[1] 13.13068

Delineamento parcelas subdivididas

Code

gsheet2tbl("https://docs.google.com/spreadsheets/d/1bq2N19DcZdtax2fQW9OHSGMR0X2__Z9T/edit?gid=1345524759#gid=1345524759")

# A tibble: 48 × 5
   hybrid   block method index yield
   <chr>    <dbl> <chr>  <dbl> <dbl>
 1 30F53 HX     1 pin     21.1 12920
 2 30F53 HX     2 pin     21.1  9870
 3 30F53 HX     3 pin     23.3  8920
 4 30F53 HX     4 pin     35.6 13120
 5 30F53 YH     1 pin     21.1 12060
 6 30F53 YH     2 pin     22.2  7860
 7 30F53 YH     3 pin     27.3  7410
 8 30F53 YH     4 pin     27.8 10300
 9 30K64        1 pin     20   11700
10 30K64        2 pin     20   10700
# ℹ 38 more rows

Code

milho <- gsheet2tbl("https://docs.google.com/spreadsheets/d/1bq2N19DcZdtax2fQW9OHSGMR0X2__Z9T/edit?gid=1345524759#gid=1345524759")
milho 

# A tibble: 48 × 5
   hybrid   block method index yield
   <chr>    <dbl> <chr>  <dbl> <dbl>
 1 30F53 HX     1 pin     21.1 12920
 2 30F53 HX     2 pin     21.1  9870
 3 30F53 HX     3 pin     23.3  8920
 4 30F53 HX     4 pin     35.6 13120
 5 30F53 YH     1 pin     21.1 12060
 6 30F53 YH     2 pin     22.2  7860
 7 30F53 YH     3 pin     27.3  7410
 8 30F53 YH     4 pin     27.8 10300
 9 30K64        1 pin     20   11700
10 30K64        2 pin     20   10700
# ℹ 38 more rows
…
Code

#para modelos mistos (introduzir fator aleatório no modelo) deve ser utilizado o pacote lme4. 
#install.packages("lme4")
library(lme4)

#cria um indentificador para a interação  híbrido bloco

milho$hybrid_block <- interaction(milho$hybrid, milho$block)

milho |> 
  mutate(hybrid_block = interaction(hybrid, block))

# A tibble: 48 × 6
   hybrid   block method index yield hybrid_block
   <chr>    <dbl> <chr>  <dbl> <dbl> <fct>       
 1 30F53 HX     1 pin     21.1 12920 30F53 HX.1  
 2 30F53 HX     2 pin     21.1  9870 30F53 HX.2  
 3 30F53 HX     3 pin     23.3  8920 30F53 HX.3  
 4 30F53 HX     4 pin     35.6 13120 30F53 HX.4  
 5 30F53 YH     1 pin     21.1 12060 30F53 YH.1  
 6 30F53 YH     2 pin     22.2  7860 30F53 YH.2  
 7 30F53 YH     3 pin     27.3  7410 30F53 YH.3  
 8 30F53 YH     4 pin     27.8 10300 30F53 YH.4  
 9 30K64        1 pin     20   11700 30K64.1     
10 30K64        2 pin     20   10700 30K64.2     
# ℹ 38 more rows
…
