Aula_4_ANOVA_fatorial
…
Code

#para calcular área baixo da curva por tratamento e bloco 

library(agricolae)

oidio |> 
  group_by(irrigation_type, moisture, block) |>
  summarise(AUDPC = AUDPC(time, sev))

# A tibble: 24 × 4
# Groups:   irrigation_type, moisture [8]
   irrigation_type moisture          block AUDPC
   <fct>           <fct>             <int> <dbl>
 1 Drip            High moisture         1 13.0 
 2 Drip            High moisture         2 13.9 
 3 Drip            High moisture         3 13.3 
 4 Furrow          Moderate moisture     1 13.5 
 5 Furrow          Moderate moisture     2 14.0 
 6 Furrow          Moderate moisture     3 13.9 
 7 MS              High moisture         1  8.06
 8 MS              High moisture         2  9.24
 9 MS              High moisture         3  8.26
10 MS              Moderate moisture     1 10.5 
# ℹ 14 more rows
…
