Aula_2_Ler_dados_de_arquivos
…
Importar dados _ Arquivos excel

Outra maneira de trabalhar é com dados tabelados em excel.

Code

#carregar os pacotes necessários aos comandos para ler as planilhas 
#install.packages("readxl")
library(readxl) #Pacote para ler planilhas do excel
library(dplyr)

dados <- read_excel("dados-diversos.xlsx", sheet = "sensibilidade_fungicidas")
dados

# A tibble: 240 × 7
   code   year trial state dose  replicate germination
   <chr> <dbl> <dbl> <chr> <chr>     <dbl>       <dbl>
 1 FGT05  2007     1 RS    0             1          46
 2 FGT05  2007     1 RS    0             2          44
 3 FGT05  2007     1 RS    0.05          1          18
 4 FGT05  2007     1 RS    0.05          2          24
 5 FGT05  2007     1 RS    0.5           1           9
 6 FGT05  2007     1 RS    0.5           2          11
 7 FGT05  2007     1 RS    1             1           0
 8 FGT05  2007     1 RS    1             2           0
 9 FGT05  2007     1 RS    5             1           0
10 FGT05  2007     1 RS    5             2           0
# ℹ 230 more rows
…
Code

#A função glimpse dá uma visão rápida do objeto, mostrando o tipo de cada coluna (ex: número, texto, data), o nome das variáveis, e alguns valores de cada variável.

dados2 <- dados |> 
  mutate(dose = as.numeric(dose)) 
#A coluna dados era caractere, aqui usamos a função "mutate" para converter a variável "dose" em valores numéricos
dados2

# A tibble: 240 × 7
   code   year trial state  dose replicate germination
   <chr> <dbl> <dbl> <chr> <dbl>     <dbl>       <dbl>
 1 FGT05  2007     1 RS     0            1          46
 2 FGT05  2007     1 RS     0            2          44
 3 FGT05  2007     1 RS     0.05         1          18
 4 FGT05  2007     1 RS     0.05         2          24
 5 FGT05  2007     1 RS     0.5          1           9
 6 FGT05  2007     1 RS     0.5          2          11
 7 FGT05  2007     1 RS     1            1           0
 8 FGT05  2007     1 RS     1            2           0
 9 FGT05  2007     1 RS     5            1           0
10 FGT05  2007     1 RS     5            2           0
# ℹ 230 more rows
…
# A tibble: 6 × 7
  code   year trial state  dose replicate germination
  <chr> <dbl> <dbl> <chr> <dbl>     <dbl>       <dbl>
1 FGT05  2007     1 RS     0            1          46
2 FGT05  2007     1 RS     0            2          44
3 FGT05  2007     1 RS     0.05         1          18
4 FGT05  2007     1 RS     0.05         2          24
5 FGT05  2007     1 RS     0.5          1           9
6 FGT05  2007     1 RS     0.5          2          11

Code

dados_csv

# A tibble: 240 × 7
   code   year trial state  dose replicate germination
   <chr> <dbl> <dbl> <chr> <dbl>     <dbl>       <dbl>
 1 FGT05  2007     1 RS     0            1          46
 2 FGT05  2007     1 RS     0            2          44
 3 FGT05  2007     1 RS     0.05         1          18
 4 FGT05  2007     1 RS     0.05         2          24
 5 FGT05  2007     1 RS     0.5          1           9
 6 FGT05  2007     1 RS     0.5          2          11
 7 FGT05  2007     1 RS     1            1           0
 8 FGT05  2007     1 RS     1            2           0
 9 FGT05  2007     1 RS     5            1           0
10 FGT05  2007     1 RS     5            2           0
# ℹ 230 more rows
…
Code

ggsave("box.png", bg = "white", width = 5, height = 5)

#plotando um segundo exemplo de gráfico 
library(gsheet)
library(ggthemes)
library(ggplot2)

micelial <- gsheet2tbl("https://docs.google.com/spreadsheets/d/1bq2N19DcZdtax2fQW9OHSGMR0X2__Z9T/edit?gid=959387827#gid=959387827")

micelial

# A tibble: 30 × 3
   especie   rep   tcm
   <chr>   <dbl> <dbl>
 1 Fasi        1  1.5 
 2 Fasi        2  1.59
 3 Fasi        3  1.52
 4 Fasi        4  1.52
 5 Fasi        5  1.6 
 6 Fasi        6  1.7 
 7 Faus        1  1.52
 8 Faus        2  1.25
 9 Faus        3  1.27
10 Faus        4  1.3 
# ℹ 20 more rows
…
