Aula_6_Transformações, Modelos Lineares e Curvas Dose-Resposta
…
Análise de regressão

library(gsheet)

Warning: pacote 'gsheet' foi compilado no R versão 4.4.3

estande <- gsheet2tbl("https://docs.google.com/spreadsheets/d/1bq2N19DcZdtax2fQW9OHSGMR0X2__Z9T/edit?gid=401662555#gid=401662555")
estande

# A tibble: 72 × 4
     exp  trat bloco nplants
   <dbl> <dbl> <dbl>   <dbl>
 1     1     0     1      66
 2     1     0     2      72
 3     1     0     3      50
 4     1     0     4      27
 5     1     3     1      68
 6     1     3     2      79
 7     1     3     3      31
 8     1     3     4      32
 9     1     6     1      58
10     1     6     2      56
# ℹ 62 more rows
…
